<?xml version="1.0" encoding="utf-8"?>
<!-- Generator: Adobe Illustrator 17.0.0, SVG Export Plug-In . SVG Version: 6.00 Build 0)  -->
<!DOCTYPE svg PUBLIC "-//W3C//DTD SVG 1.1//EN" "http://www.w3.org/Graphics/SVG/1.1/DTD/svg11.dtd">
<svg version="1.1" id="Слой_1" xmlns="http://www.w3.org/2000/svg" xmlns:xlink="http://www.w3.org/1999/xlink" x="0px" y="0px"
	 width="16px" height="16px" viewBox="0 0 16 16" enable-background="new 0 0 16 16" xml:space="preserve">
<path fill="none" stroke="#10BF10" stroke-width="2" stroke-miterlimit="10" d="M13.618,7.333v5.333
	c0,0.733-0.593,1.333-1.319,1.333H3.069c-0.725,0-1.319-0.6-1.319-1.333V3.333C1.75,2.6,2.343,2,3.069,2h5.934"/>
<polyline id="Done__x2014__Displayed_on_the_left_side_of_a_contextual_action_bar__x28_CAB_x29__to_allow_the_user_to_dismiss_it._3_" fill="none" stroke="#10BF10" stroke-width="2" stroke-miterlimit="10" points="
	13.75,3.067 7.157,10.133 4.256,7.2 "/>
</svg>
