<?xml version="1.0" encoding="utf-8"?>
<!-- Generator: Adobe Illustrator 17.0.0, SVG Export Plug-In . SVG Version: 6.00 Build 0)  -->
<!DOCTYPE svg PUBLIC "-//W3C//DTD SVG 1.0//EN" "http://www.w3.org/TR/2001/REC-SVG-20010904/DTD/svg10.dtd">
<svg version="1.0" id="Слой_1" xmlns="http://www.w3.org/2000/svg" xmlns:xlink="http://www.w3.org/1999/xlink" x="0px" y="0px"
	 width="16px" height="16px" viewBox="0 0 16 16" enable-background="new 0 0 16 16" xml:space="preserve">
<g id="Page-1">
	<g id="icon-25-key">
		<path id="key" fill="#29ABE2" d="M6.268,11.228l-0.807,0.802l0,0l1.344,1.337l-1.613,1.605l-1.344-1.337L2.84,14.639
			c-0.452,0.45-1.185,0.452-1.636,0.004l0.019,0.019c-0.45-0.448-0.449-1.177,0.004-1.627L7.764,6.53
			C7.496,6.015,7.344,5.43,7.344,4.809c0-2.068,1.685-3.745,3.764-3.745s3.764,1.677,3.764,3.745s-1.685,3.745-3.764,3.745
			c-0.624,0-1.212-0.151-1.731-0.418l0,0L7.882,9.623l1.076,1.07l-1.613,1.605L6.268,11.228L6.268,11.228L6.268,11.228z
			 M11.108,6.949c1.188,0,2.151-0.958,2.151-2.14s-0.963-2.14-2.151-2.14s-2.151,0.958-2.151,2.14S9.92,6.949,11.108,6.949
			L11.108,6.949z"/>
	</g>
</g>
</svg>
