<?xml version="1.0" encoding="utf-8"?>
<!-- Generator: Adobe Illustrator 17.0.0, SVG Export Plug-In . SVG Version: 6.00 Build 0)  -->
<!DOCTYPE svg PUBLIC "-//W3C//DTD SVG 1.0//EN" "http://www.w3.org/TR/2001/REC-SVG-20010904/DTD/svg10.dtd">
<svg version="1.0" id="Слой_1" xmlns="http://www.w3.org/2000/svg" xmlns:xlink="http://www.w3.org/1999/xlink" x="0px" y="0px"
	 width="16px" height="16px" viewBox="0 0 16 16" enable-background="new 0 0 16 16" xml:space="preserve">
<path fill="#808080" d="M5.421,9.235c1.018,0,1.939-0.461,2.605-1.206c0.666-0.744,1.079-1.774,1.079-2.911S8.693,2.951,8.027,2.206
	C7.36,1.461,6.439,1,5.421,1S3.482,1.461,2.816,2.206C2.149,2.951,1.737,3.98,1.737,5.118s0.413,2.167,1.079,2.911
	C3.482,8.774,4.403,9.235,5.421,9.235z"/>
<path fill="#808080" d="M5.421,15c3.111,0,5.305-0.824,5.305-1.647c0-1.647-2.081-3.294-5.305-3.294
	c-3.316,0-5.305,1.647-5.305,3.294C0.116,14.176,2.105,15,5.421,15z"/>
<path fill="#FF1D25" d="M14.263,7.588h-1.474h-1.474H9.842c-0.407,0-0.737,0.368-0.737,0.824c0,0.455,0.329,0.824,0.737,0.824h1.474
	h1.474h1.474C14.671,9.235,15,8.867,15,8.412C15,7.956,14.671,7.588,14.263,7.588z"/>
</svg>
