<?xml version="1.0" encoding="utf-8"?>
<!-- Generator: Adobe Illustrator 17.0.0, SVG Export Plug-In . SVG Version: 6.00 Build 0)  -->
<!DOCTYPE svg PUBLIC "-//W3C//DTD SVG 1.0//EN" "http://www.w3.org/TR/2001/REC-SVG-20010904/DTD/svg10.dtd">
<svg version="1.0" id="Слой_1" xmlns="http://www.w3.org/2000/svg" xmlns:xlink="http://www.w3.org/1999/xlink" x="0px" y="0px"
	 width="16px" height="16px" viewBox="0 0 16 16" enable-background="new 0 0 16 16" xml:space="preserve">
<rect x="1" y="1" fill="#39B54A" width="14" height="14"/>
<path display="none" fill="none" stroke="#FFFFFF" stroke-width="2" stroke-miterlimit="10" d="M3.688,2.896l4.833,5.417
	L3.688,2.896z"/>
<path display="none" fill="none" stroke="#FFFFFF" stroke-width="2" stroke-miterlimit="10" d="M8.661,7.739l-4.833,5.417
	L8.661,7.739z"/>
<line display="none" fill="none" stroke="#FFFFFF" stroke-width="2" stroke-miterlimit="10" x1="12.661" y1="7.739" x2="7.827" y2="13.156"/>
<path display="none" fill="none" stroke="#FFFFFF" stroke-width="2" stroke-miterlimit="10" d="M7.688,2.896l4.833,5.417
	L7.688,2.896z"/>
<path display="none" fill="none" stroke="#FFFFFF" stroke-width="2" stroke-miterlimit="10" d="M6.844,4.094
	c0,3.334,2.271,6.031,5.078,6.031"/>
<path fill="none" stroke="#FFFFFF" stroke-width="2" stroke-miterlimit="10" d="M4.375,4.688C4.514,4.83,8.321,8.275,8.328,8.453
	C8.337,8.68,5.344,11.578,4,12.672"/>
<path fill="none" stroke="#FFFFFF" stroke-width="2" stroke-miterlimit="10" d="M8.375,4.688c0.139,0.142,3.946,3.588,3.953,3.766
	C12.337,8.68,9.344,11.578,8,12.672"/>
</svg>
